^C:\STRYKER\RELEASE\TEST\CONSOLEAPP\CONSOLEAPP\X64\DEBUG\CONSOLEAPP.OBJ
C:\PROGRAM FILES (X86)\WINDOWS KITS\10\LIB\10.0.22000.0\UM\X64\KERNEL32.LIB
C:\PROGRAM FILES (X86)\WINDOWS KITS\10\LIB\10.0.22000.0\UM\X64\USER32.LIB
C:\PROGRAM FILES (X86)\WINDOWS KITS\10\LIB\10.0.22000.0\UM\X64\GDI32.LIB
C:\PROGRAM FILES (X86)\WINDOWS KITS\10\LIB\10.0.22000.0\UM\X64\WINSPOOL.LIB
C:\PROGRAM FILES (X86)\WINDOWS KITS\10\LIB\10.0.22000.0\UM\X64\COMDLG32.LIB
C:\PROGRAM FILES (X86)\WINDOWS KITS\10\LIB\10.0.22000.0\UM\X64\ADVAPI32.LIB
C:\PROGRAM FILES (X86)\WINDOWS KITS\10\LIB\10.0.22000.0\UM\X64\SHELL32.LIB
C:\PROGRAM FILES (X86)\WINDOWS KITS\10\LIB\10.0.22000.0\UM\X64\OLE32.LIB
C:\PROGRAM FILES (X86)\WINDOWS KITS\10\LIB\10.0.22000.0\UM\X64\OLEAUT32.LIB
C:\PROGRAM FILES (X86)\WINDOWS KITS\10\LIB\10.0.22000.0\UM\X64\UUID.LIB
C:\PROGRAM FILES (X86)\WINDOWS KITS\10\LIB\10.0.22000.0\UM\X64\ODBC32.LIB
C:\PROGRAM FILES (X86)\WINDOWS KITS\10\LIB\10.0.22000.0\UM\X64\ODBCCP32.LIB
C:\STRYKER\RELEASE\TEST\CONSOLEAPP\CONSOLEAPP\X64\DEBUG\CONSOLEAPP.OBJ
C:\WINDOWS\GLOBALIZATION\SORTING\SORTDEFAULT.NLS
C:\PROGRAM FILES\MICROSOFT VISUAL STUDIO\2022\PROFESSIONAL\VC\TOOLS\MSVC\14.34.31933\LIB\X64\MSVCPRTD.LIB
C:\PROGRAM FILES\MICROSOFT VISUAL STUDIO\2022\PROFESSIONAL\VC\TOOLS\MSVC\14.34.31933\LIB\X64\MSVCRTD.LIB
C:\PROGRAM FILES\MICROSOFT VISUAL STUDIO\2022\PROFESSIONAL\VC\TOOLS\MSVC\14.34.31933\LIB\X64\OLDNAMES.LIB
C:\PROGRAM FILES\MICROSOFT VISUAL STUDIO\2022\PROFESSIONAL\VC\TOOLS\MSVC\14.34.31933\LIB\X64\VCRUNTIMED.LIB
C:\PROGRAM FILES (X86)\WINDOWS KITS\10\LIB\10.0.22000.0\UCRT\X64\UCRTD.LIB
C:\PROGRAM FILES (X86)\WINDOWS KITS\10\BIN\10.0.22000.0\X64\RC.EXE
C:\WINDOWS\SYSTEM32\CI.DLL
C:\WINDOWS\SYSTEM32\DNSAPI.DLL
C:\WINDOWS\SYSTEM32\FVEUI.DLL
C:\WINDOWS\SYSTEM32\WUAUENG.DLL
C:\WINDOWS\SYSTEM32\WINDOWSPOWERSHELL\V1.0\POWERSHELL.EXE
C:\WINDOWS\SYSTEM32\NGCRECOVERY.DLL
C:\PROGRAM FILES\MICROSOFT VISUAL STUDIO\2022\PROFESSIONAL\VC\TOOLS\MSVC\14.34.31933\BIN\HOSTX64\X64\CVTRES.EXE
C:\WINDOWS\SYSTEM32\TZRES.DLL
C:\STRYKER\RELEASE\TEST\CONSOLEAPP\CONSOLEAPP\X64\DEBUG\VC143.PDB
