^C:\STRYKER\RELEASE\TEST\CONSOLEAPP\CONSOLEAPP\X64\DEBUG\CONSOLEAPP.OBJ
C:\STRYKER\RELEASE\TEST\CONSOLEAPP\CONSOLEAPP\X64\DEBUG\CONSOLEAPP.ILK
C:\STRYKER\RELEASE\TEST\CONSOLEAPP\X64\DEBUG\CONSOLEAPP.EXE
C:\STRYKER\RELEASE\TEST\CONSOLEAPP\X64\DEBUG\CONSOLEAPP.PDB
